module github.com/rajatvig/openvpn_exporter

require (
	github.com/prometheus/client_golang v0.9.4
	github.com/prometheus/common v0.4.1
	github.com/stretchr/testify v1.3.0
	gopkg.in/alecthomas/kingpin.v2 v2.2.6
	gopkg.in/yaml.v3 v3.0.0-20190502103701-55513cacd4ae
)
